…
    ## # A tibble: 0 × 6
    ## # … with 6 variables: address <chr>, city <chr>, state <chr>, zip <chr>,
    ## #   longitude <dbl>, latitude <dbl>

None found, all Denny’s are in the US 5 \### Exercise 6

``` r
dennys %>% 
  mutate(country = "United States")
```

    ## # A tibble: 1,643 × 7
    ##    address                        city       state zip   longi…¹ latit…² country
    ##    <chr>                          <chr>      <chr> <chr>   <dbl>   <dbl> <chr>  
    ##  1 2900 Denali                    Anchorage  AK    99503  -150.     61.2 United…
    ##  2 3850 Debarr Road               Anchorage  AK    99508  -150.     61.2 United…
    ##  3 1929 Airport Way               Fairbanks  AK    99701  -148.     64.8 United…
    ##  4 230 Connector Dr               Auburn     AL    36849   -85.5    32.6 United…
    ##  5 224 Daniel Payne Drive N       Birmingham AL    35207   -86.8    33.6 United…
    ##  6 900 16th St S, Commons on Gree Birmingham AL    35294   -86.8    33.5 United…
    ##  7 5931 Alabama Highway, #157     Cullman    AL    35056   -86.9    34.2 United…
    ##  8 2190 Ross Clark Circle         Dothan     AL    36301   -85.4    31.2 United…
    ##  9 900 Tyson Rd                   Hope Hull… AL    36043   -86.4    32.2 United…
    ## 10 4874 University Drive          Huntsville AL    35816   -86.7    34.7 United…
    ## # … with 1,633 more rows, and abbreviated variable names ¹​longitude, ²​latitude
…
laquinta <- laquinta %>%
  filter(country == "United States")
```

\###Exercise 9

``` r
dennys %>%
  dplyr::count(state) %>%
  inner_join(states, by = c("state" = "abbreviation"))
```

    ## # A tibble: 51 × 4
    ##    state     n name                     area
    ##    <chr> <int> <chr>                   <dbl>
    ##  1 AK        3 Alaska               665384. 
    ##  2 AL        7 Alabama               52420. 
    ##  3 AR        9 Arkansas              53179. 
    ##  4 AZ       83 Arizona              113990. 
    ##  5 CA      403 California           163695. 
    ##  6 CO       29 Colorado             104094. 
    ##  7 CT       12 Connecticut            5543. 
    ##  8 DC        2 District of Columbia     68.3
    ##  9 DE        1 Delaware               2489. 
    ## 10 FL      140 Florida               65758. 
    ## # … with 41 more rows

``` r
laquinta %>%
  dplyr::count(state) %>%
  inner_join(states, by = c("state" = "abbreviation"))
```

    ## # A tibble: 48 × 4
    ##    state     n name           area
    ##    <chr> <int> <chr>         <dbl>
    ##  1 AK        2 Alaska      665384.
    ##  2 AL       16 Alabama      52420.
    ##  3 AR       13 Arkansas     53179.
    ##  4 AZ       18 Arizona     113990.
    ##  5 CA       56 California  163695.
    ##  6 CO       27 Colorado    104094.
    ##  7 CT        6 Connecticut   5543.
    ##  8 FL       74 Florida      65758.
    ##  9 GA       41 Georgia      59425.
    ## 10 IA        4 Iowa         56273.
    ## # … with 38 more rows
…
